analiza_covid
…
patients

## # A tibble: 375 x 8
##    patient_id   age gender admission_date      discharge_date      survived
##         <dbl> <dbl> <chr>  <dttm>              <dttm>              <chr>   
##  1          1    73 male   2020-01-30 22:12:47 2020-02-17 12:40:09 yes     
##  2          2    61 male   2020-02-04 21:39:03 2020-02-19 12:59:01 yes     
##  3          3    70 female 2020-01-23 10:59:36 2020-02-08 17:52:31 yes     
##  4          4    74 male   2020-01-31 23:03:59 2020-02-18 12:59:12 yes     
##  5          5    29 female 2020-02-01 20:59:54 2020-02-18 10:33:06 yes     
##  6          6    81 female 2020-01-24 10:47:10 2020-02-07 09:06:58 yes     
##  7          7    40 male   2020-01-20 17:54:43 2020-02-08 16:21:46 yes     
##  8          8    47 male   2020-01-30 13:42:08 2020-02-18 11:45:27 yes     
##  9          9    38 female 2020-01-28 23:06:46 2020-02-18 16:46:01 yes     
## 10         10    30 male   2020-02-01 19:50:17 2020-02-19 12:12:57 yes     
## # ... with 365 more rows, and 2 more variables: treatment_duration <dbl>,
## #   age_group <fct>
